<?xml version="1.0" encoding="utf-8"?>
<!-- Generated by IcoMoon.io -->
<!DOCTYPE svg PUBLIC "-//W3C//DTD SVG 1.1//EN" "http://www.w3.org/Graphics/SVG/1.1/DTD/svg11.dtd">
<svg version="1.1" xmlns="http://www.w3.org/2000/svg" xmlns:xlink="http://www.w3.org/1999/xlink" width="46" height="64" viewBox="0 0 46 64">
<path fill="#000" d="M29.914 16.816c0.386-0.676 0.892-1.348 1.472-1.912 0.894-0.868 2.008-1.363 2.753-1.363 0.757 0 1.056 0.262 1.196 0.262 0.124 0 0.232-0.178 0.425-0.235 0.068-0.013 0.057-0.040 0.122-0.040 0.084 0 0.25 0.151 0.25 0.234 0 0.068-0.029 0.068-0.041 0.125-0.042 0.192-0.209 0.302-0.209 0.425 0 0.126 0.385 0.358 0.385 1.292 0 0.893-0.577 2.257-1.389 3.234-0.494 0.592-0.92 0.852-1.086 1.017-0.096 0.095-0.137 0.277-0.248 0.374-0.124 0.108-0.178 0.013-0.22 0.094-0.041 0.084-0.164 0.111-0.247 0.084s-0.014 0.041-0.096 0.083c-0.082 0.042-0.098 0.027-0.192 0.054-0.096 0.028-0.042 0.082-0.304 0.137 0.081 0.041 0.508-0.012 0.606-0.012 0.096 0 0.384-0.084 0.48-0.084 0.098 0 0.098-0.026 0.193-0.026 0.097 0 0.081 0.013 0.139 0.013 0.056 0 0.235-0.082 0.358 0 0.042-0.039 0.234-0.028 0.287-0.028 0.056 0 0.070 0.056 0.139 0.069s0.192 0 0.29 0.027c0.026 0.014 0.055 0.014 0.108 0.069 0.194-0.012 0.358 0.098 0.4 0.152 0.082 0.096 0.14 0.027 0.18 0.069 0.039 0.042 0.176 0.084 0.206 0.165 0.011 0.042-0.014 0.070 0.011 0.096 0.030 0.027 0.126 0.027 0.153 0.043 0.027 0.012 0.057 0.054 0.083 0.080 0.026 0.042 0.124 0.069 0.094 0.179 0.151 0 0.276 0.18 0.276 0.275v0.096c0 0 0.040 0.042 0.096 0.056 0.055 0.014 0.151 0.233 0.125 0.33-0.029 0.082 0.011 0.070 0.011 0.124 0 0.854-1.608 1.542-3.768 1.542-0.825 0-1.155-0.332-1.196-0.454-0.026-0.068-0.026-0.098-0.026-0.151-0.028-0.042-0.113-0.166-0.044-0.289 0 0-0.040-0.070-0.040-0.166 0.013-0.193 0.084-0.178 0.084-0.247 0-0.040-0.015-0.070-0.015-0.109 0-0.097 0.042-0.111 0.068-0.248 0.028-0.109 0.042-0.026 0.096-0.124 0.055-0.095 0.055-0.027 0.055-0.152s0.030-0.136 0.152-0.177c0 0 0.030-0.18 0.165-0.194 0.058 0 0.029-0.068 0.058-0.136 0.026-0.068 0.107-0.015 0.136-0.083 0.013-0.041 0.153-0.166 0.302-0.192-0.537-0.014-0.852 0.124-1.087 0.11-0.164-0.012-0.22-0.040-0.923 0.112-0.865 0.191-2.448 1.003-3.231 1.486-0.977 0.603-3.521 2.378-4.349 3.92-0.136 0.236-0.424 1.692-0.771 2.998-0.396 1.502-0.878 2.948-0.906 3.206 0.22-0.302 0.453-0.535 0.701-0.535 0.442 0 0.33 0.535 0.386 0.577 0.069 0.042 0.069-0.11 0.069-0.248s0.028-0.454 0.233-0.784c0.234-0.372 0.648-0.756 1.155-1.152 0.494-0.388 0.826-1.391 1.088-2.134 0.26-0.744 0.742-1.566 1.404-1.566 0.468 0 0.743 0.411 0.839 0.577 0.11 0.205 0.246 0.645 0.411 0.618 0.386-0.070 1.308-2.119 2.093-2.93 0.372-0.384 0.771-0.852 1.474-0.852 1.234 0 1.056 1.732 1.55 1.732 0.33 0 0.551-0.496 0.702-0.7 0.319-0.457 1.321-1.267 1.915-1.267 0.575 0 0.672 0.468 0.672 0.881 0 0.331-0.081 0.632 0.248 0.632 0.207 0 0.811-1.072 1.569-1.072 0.302 0 0.619 0.192 0.619 0.576 0 0.358-0.056 0.548-0.056 0.66s0.096 0.18 0.234 0.18c0.166 0 0.33-0.044 0.469-0.044 0.328 0 0.617 0.208 0.617 0.648 0 0.509-0.274 0.866-0.605 1.254-0.137 0.15-0.178 0.274-0.069 0.453 0.179 0.288 0.467 0.358 0.467 0.605 0 0.605-0.398 0.812-0.756 0.894-0.345 0.084-1.018 0.108-1.018 0.575 0 0.402 0.538 0.676 0.538 1.378 0 0.303-0.113 0.564-0.525 0.786-0.454 0.245-1.348 0.284-1.486 0.284-0.412 0-0.977-0.080-1.308-0.080-0.33 0-0.631 0.014-0.631 0.206 0 0.371 0.758 0.646 0.758 1.416 0 0.799-1.225 0.937-1.942 0.937-0.853 0-1.513-0.152-2.227-0.401-0.371-0.124-1.116-0.508-1.666-0.508-0.329 0-0.494 0.109-0.494 0.248 0 0.234 0.576 0.661 0.576 1.239 0 0.494-0.411 0.687-0.796 0.687-1.39 0-2.312-1.638-4.32-1.638-0.508 0-0.714 0.208-1.322 0.208-0.768 0-1.003-0.261-0.988-0.716-0.494 0.221-1.102 0.716-1.102 1.375 0 0.524 0.052 0.795 0.245 1.002 0.192 0.208 0.44 0.275 0.485 0.448 0.139 0.136-0.063 0.505 0.034 1.162 0.075 0.508 0.229 1.184 0.306 1.353 0.070 0.154-0.488 0.214-0.644 0.216-0.254 0.002-1.116 0.022-1.144-0.217-0.078-0.659-0.643-3.095-0.848-3.648-0.276-0.728-0.398-0.659-0.854-1.016-0.388-0.329-2.242-1.584-3.234-1.584-0.262 0-0.123-0.038-0.331-0.038-0.137 0-0.026-0.028-0.109-0.028-0.082 0-0.067 0.066-0.204 0.066-0.084 0-0.029 0.236-0.084 0.236-0.083 0-0.055 0.084-0.068 0.177-0.014 0.097-0.098 0.154-0.112 0.236-0.011 0.082-0.11 0-0.11 0.095 0 0.097 0.044 0.097 0 0.153-0.080 0.11-0.070 0.165-0.136 0.165-0.069 0-0.069 0.026-0.069 0.055 0 0.125 0.055 0.11-0.027 0.18-0.083 0.067-0.193 0.067-0.193 0.177 0 0.042-0.027 0.069-0.041 0.111-0.055 0-0.11 0.055-0.138 0.098-0.028 0.042-0.013-0.029-0.068 0.068-0.054 0.096-0.041 0.080-0.109 0.080-0.192 0-0.124 0.098-0.4 0.098-0.922 0-2.023-1.608-2.023-2.875 0-0.881 0.126-0.869 0.154-1.047 0.026-0.18 0.164-0.356 0.273-0.371 0.111-0.013 0.069-0.054 0.193-0.038-0.013-0.070 0.098-0.084 0.151-0.112 0.081-0.043 0.137-0.043 0.248 0.028 0.040-0.028 0.070-0.071 0.152-0.071s0.11 0.086 0.162 0.086c0.098 0 0.071-0.029 0.153-0.029s0.125 0.014 0.22 0.070c0.041-0.015 0.068-0.042 0.125-0.030 0.042 0.015 0.123 0.042 0.136 0.096 0.056 0 0.124-0.013 0.235 0.070 0.041 0.026 0.083 0.084 0.097 0.122 0.083 0.016 0.041-0.051 0.166 0.016 0.123 0.069 0.123 0.080 0.192 0.177 0.068 0.095 0.054 0.013 0.153 0.070 0.151 0.094 0.081 0.151 0.151 0.205 0.041 0 0.055 0 0.11 0.041 0.066 0.057 0.014 0.098 0.066 0.126 0.030 0.014 0.058 0 0.070 0.096 0.016 0.068 0.11 0.11 0.196 0.22 0.053 0.068 0.191 0.206 0.233 0.206 0.054 0 0.042-0.054-0.042-0.165-0.11-0.15-0.11-0.083-0.191-0.303-0.029-0.068-0.097-0.040-0.097-0.152 0-0.081-0.123-0.18-0.123-0.248 0-0.066 0-0.095-0.046-0.123-0.041-0.027-0.052-0.040-0.066-0.081-0.043-0.111 0.014-0.111 0.014-0.18 0-0.068-0.069 0.015-0.082-0.040-0.015-0.056 0-0.123 0-0.179s-0.055-0.028-0.055-0.124c0-0.083 0.014-0.056 0.014-0.151s-0.056-0.069-0.070-0.152c-0.016-0.081 0.028-0.070 0.028-0.165s-0.028-0.014-0.028-0.096c0-0.098 0.041-0.070 0.041-0.194 0-0.040 0.028-0.094 0.042-0.136 0.012-0.057-0.042-0.057 0-0.114 0.138-0.204 0.37-0.549 1.499-0.549 1.404 0 2.668 0.346 3.206 1.061 0.040 0.056 0.096 0.056 0.11 0.177 0.014 0.098 0.054 0.112 0.054 0.262 0 0.083-0.054 0.166-0.068 0.264-0.028 0.163 0.028 0.342-0.069 0.342-0.084 0-0.027 0.288-0.111 0.288-0.056 0-0.011 0.098-0.136 0.098-0.097 0 0 0.274-0.138 0.315-0.041 0.013-0.138-0.025-0.164 0.111-0.015 0.054-0.070 0.192-0.166 0.206-0.137 0.026-0.080 0.026-0.151 0.083-0.178 0.165-0.054 0.192-0.111 0.246-0.136 0.138-0.165-0.152-0.261-0.040-0.040 0.055-0.066 0.055-0.066 0.11 0 0.123-0.028 0.081-0.125 0.053-0.109-0.040-0.206 0.098-0.165 0.141 0.056 0.070-0.013 0.081-0.081 0.025-0.028-0.025-0.086-0.012-0.126-0.025-0.067-0.029-0.152 0-0.152 0.070 0 0.106 0.017 0.106-0.026 0.106-0.041 0-0.026-0.106-0.094-0.106-0.071 0-0.139 0.011-0.139 0.011 0.029 0.084 1.071 0.592 1.335 0.714 0.618 0.345 1.088 0.716 1.389 0.716 0.412 0 1.525-2.779 1.458-4.073-0.025-0.398-0.041-0.494-0.025-0.55 0.025-0.124-0.263-0.11-0.263-0.66 0-0.125 0.026-0.385 0.125-0.509 0.053-0.070 0.206-0.15 0.302-0.15s0.344 0.192 0.37 0.303c0.111-0.166 0.412-1.542 0.412-1.968 0-0.15-0.054-0.344-0.108-0.399-0.057-0.056-0.55-0.15-0.976-0.702-0.029-0.041-0.085-0.069-0.113-0.041-0.024 0.026 0 0.041 0 0.138 0 0.138-0.22 0.51-0.589 0.51-0.62 0-0.784-0.276-1.472-0.276-0.334 0-0.565 0.123-0.744 0.276-0.332 0.274-0.908 0.536-1.168 0.536-0.633 0-0.318-0.88-0.703-0.88-0.29 0-0.29 0.466-0.399 0.768-0.179 0.496-1.32 1.844-1.953 1.844-0.62 0-0.385-1.086-0.742-1.086-0.222 0-0.36 0.318-0.428 0.536-0.275 0.909-0.647 1.566-1.018 1.993s-0.865 1.198-1.431 1.198c-0.55 0-0.412-0.866-0.674-1.073-0.124-0.097-0.37-0.206-0.51 0.056-0.288 0.563-0.604 1.65-1.417 1.65-0.509 0-0.618-0.372-0.631-0.633-0.016-0.261-0.016-0.316-0.058-0.468-0.040-0.151-0.080-0.303-0.245-0.303-0.112 0-0.236 0.070-0.344 0.342-0.112 0.278-0.495 0.87-1.197 0.87-0.62 0-0.839-0.248-0.85-0.441-0.016-0.248 0.051-0.605-0.43-0.482-0.536 0.139-0.852-0.661-0.852-0.976 0-0.58 0.4-0.991 0.4-1.197 0-0.246-0.565-0.384-0.565-0.992 0-1.361 1.447-1.002 1.447-1.636 0-0.578-1.021-0.839-1.021-1.444 0-1.224 1.609-1.444 1.914-1.444 0.303 0 0.647 0.096 0.809 0.096 0.166 0 0.608-0.081 0.608-0.275 0-0.192-0.18-0.468-0.344-0.687-0.166-0.222-0.386-0.427-0.386-0.689 0-0.854 0.894-1.17 1.524-1.17 1.241 0 2.095 0.248 2.423 0.399 0.346 0.152 0.644 0.414 0.951 0.414 0.15 0 0.26-0.056 0.26-0.194 0-0.286-0.48-0.646-0.48-1.194 0-0.428 0.384-0.882 1.046-0.882 0.66 0 1.608 0.385 2.105 0.688 0.494 0.303 1.349 1.127 1.747 1.127 0.426 0-0.058-1.306 0.892-1.306 0.813 0 1.83 0.879 2.505 2.146 0.123 0.234 0.48 0.742 0.782 0.908 0.498 0.274 1.087 1.182 1.173 1.857 0.025 0.207 0.162 0.329 0.205 0.329-0.042-0.205-0.068-0.618 0.206-0.673 0.264-0.056 0.688 0.275 0.798 0.426 0.082-0.164-0.138-0.758-0.205-0.922-0.056-0.137-0.442-1.432-0.536-1.665-0.098-0.234-0.523-1.266-0.662-1.528-0.232-0.455-0.713-0.632-0.948-0.754-0.346-0.194-0.715-0.647-0.812-0.73s-0.096-0.069-0.149-0.069c-0.044 0-0.126 0.316-0.593 0.316-0.482 0-1.059-0.742-1.638-1.059-0.825-0.455-1.912-0.593-2.323-0.646-0.29-0.041-1.254-0.248-1.707-0.537-0.303-0.193-0.402-0.466-0.402-0.687 0-0.468 0.58-0.742 0.718-0.796 0.136-0.054 0.286-0.14 0.286-0.236 0-0.138-0.246-0.247-0.425-0.359-0.236-0.136-0.593-0.176-1.074-0.192-0.48-0.014-1.253-0.136-1.691-0.33-0.442-0.192-1.391-0.866-1.391-1.429 0-0.4 0.207-0.689 0.538-0.854s0.866-0.33 0.866-0.591c0-0.179-0.192-0.22-0.329-0.316-0.153-0.108-0.976-0.262-1.252-0.316-0.411-0.082-2.106-0.412-2.106-1.457 0-0.991 1.487-1.032 1.487-1.239 0-0.221-0.441-0.359-0.908-0.647-0.551-0.345-1.142-0.828-1.142-1.295 0-0.934 1.333-0.658 1.333-1.003 0-0.069-0.083-0.206-0.135-0.261l-0.413-0.4c-0.137-0.14-0.289-0.425-0.289-0.549 0-0.386 0.4-0.374 0.4-0.552 0-0.108-0.043-0.136-0.043-0.246 0-0.25 0.275-0.523 0.812-0.387 0.179 0.042 0.288 0.056 0.454 0.029 0.164-0.029 0.259-0.262 0.606-0.262 0.467 0 0.674 0.496 0.784 0.633 0.094 0.125 0.135 0.233 0.231 0.233 0.14 0 0.165-0.358 0.303-0.536 0.098-0.124 0.373-0.33 0.604-0.33 0.743 0 1.337 0.62 1.638 1.293 0.057 0.137 0.153 0.316 0.25 0.316 0.288 0 0.549-1.223 1.431-1.223 0.548 0 0.796 0.194 1.004 0.372 0.329 0.302 0.384 0.934 0.536 1.374 0.137 0.4 0.055 1.527 0.055 1.761s0.054 0.866 0.248 0.866c0.355 0 0.685-0.893 1.526-0.893 0.371 0 0.934 0.509 0.934 1.68 0 1.275-0.564 1.704-0.564 2.626 0 0.177 0.028 0.371 0.192 0.371 0.167 0 0.262-0.275 0.371-0.398 0.15-0.166 0.426-0.277 0.815-0.277 0.452 0 0.658 0.427 0.658 0.992 0 0.399-0.234 1.968-0.234 2.764 0 0.799 0.275 1.214 0.275 2.162 0 0.742-0.357 1.21-0.357 1.538 0 0.141 0.177 0.385 0.316 0.332-0.151-0.191 0-0.69 0.124-0.757 0.095-0.055 0.261-0.014 0.345 0.014-0.096-0.631 0.151-1.225 0.371-1.264 0.315-0.070 0.908 0.522 0.961 0.619 0.082-0.085 0.166-0.165 0.291-0.165 0.178 0 0.37 0.136 0.534 0.328 0.042-0.069 0.055-0.124 0.055-0.22 0-0.152-0.302-0.937-0.302-1.597 0-0.797 0.374-1.541 0.374-2.16 0-1.184-0.374-1.896-0.374-2.46 0-1.173 0.358-1.802 0.908-1.802 0.535 0 0.837 0.534 1.182 0.534 0.248 0 0.399-0.479 0.439-0.768 0.193-1.348 0.292-4.25 1.777-4.952 0.315-0.153 0.686-0.044 0.948 0.233 0.525 0.535 0.621 1.169 1.018 1.169 0.276 0 0.647-0.687 0.786-0.989 0.205-0.47 0.934-1.24 1.678-1.24 1.265 0 0.812 1.376 1.429 1.376 0.648 0 1.143-1.184 2.199-1.184 0.306 0 0.648 0.317 0.648 0.702 0 0.248-0.026 0.44-0.026 0.564 0 0.124 0 0.276 0.138 0.276s0.552-0.441 0.852-0.441c0.539 0 0.414 0.523 0.662 0.688 0.138 0.096 0.673 0.137 0.673 0.688 0 0.701-0.673 0.686-0.673 1.018 0 0.231 0.577 0.4 0.577 0.783 0 0.414-0.412 0.867-0.756 0.908-0.261 0.030-1.155 0-1.155 0.386 0 0.082 0.221 0.206 0.41 0.372 0.237 0.206 0.496 0.44 0.496 0.798 0 0.494-0.551 0.976-2.257 0.976-0.275 0-0.356-0.027-0.645-0.027-0.123 0-0.358 0.015-0.575 0.070-0.305 0.082-0.594 0.192-0.594 0.345 0 0.493 0.963 0.48 0.963 1.086 0 0.452-0.317 0.754-0.728 0.989-0.275 0.165-1.348 0.579-1.98 0.579-1.279 0-1.445-0.152-1.815-0.152-0.32 0-0.566 0.109-0.566 0.301 0 0.194 0.192 0.304 0.48 0.468 0.18 0.096 0.91 0.344 0.91 0.952 0 0.631-1.048 0.974-1.5 1.057-1.171 0.236-1.83 0.565-2.628 1.335-0.412 0.4-1.28 1.458-2.147 1.046-0.371 0.536-0.92 1.073-0.989 1.526-0.123 0.786 1.046 4.456 1.554 4.456 0.316 0 0.772-0.412 1.432-0.853 0.44-0.288 0.893-0.602 1.418-0.963 2.283-1.554 4.168-2.352 4.168-2.654 0-0.234-0.192-0.44-0.264-0.564-0.053-0.11-0.124-0.151-0.177-0.248-0.058-0.096-0.042-0.125-0.082-0.207-0.043-0.082-0.096-0.138-0.125-0.247-0.025-0.095-0.025-0.11-0.015-0.191-0.082-0.028-0.082-0.097-0.082-0.182 0-0.080 0.013-0.080 0.013-0.162 0-0.085-0.054-0.029-0.054-0.153 0-0.167 0.054-0.152 0.054-0.247 0-0.027-0.096-0.082-0.096-0.151 0-0.124 0.096-0.151 0.096-0.234s-0.068-0.055-0.068-0.138c0-0.276 0.083-0.235 0.111-0.305-0.014-0.054 0.015-0.232 0.11-0.3s0.206-0.207 0.29-0.193c-0.003 0.001 0.037-0.109 0.149-0.094zM5.131 62.214v-7.022h-2.675v-0.794h6.855v0.794h-2.694v7.022zM16.169 61.172c-0.111 0.525-0.543 1.153-1.447 1.153-1.034 0-1.552-0.813-1.552-1.847v-3.32l1.458-0.11v3.626c0 0.684 0.305 1.015 0.775 1.015 0.359 0 0.608-0.259 0.765-0.516zM17.793 61.218c0 0.517 0.075 0.821 0.435 0.821-0.204 0.138-0.545 0.221-0.831 0.221-0.6 0-1.061-0.305-1.061-1.078v-4.024l1.458-0.11-0 4.17zM23.009 57.527c0.701-0.351 1.44-1.099 1.826-1.755h0.185v1.328h1.254v0.564h-1.254v3.22c0 0.489 0.285 0.904 0.876 0.904 0.275 0 0.58-0.129 0.757-0.407-0.139 0.434-0.564 0.942-1.459 0.942-1.060 0-1.614-0.802-1.614-1.837v-2.823h-0.572v-0.137zM10.412 58.16c0.231-0.655 0.701-1.226 1.457-1.226 0.166 0 0.323 0.037 0.452 0.084l-0.12 0.995c-0.692-0.457-1.488-0.006-1.678 0.828v3.374h-1.421v-5.072l1.318-0.11-0.009 1.127zM20.454 61.845c-0.628 0-1.107-0.423-1.384-0.885l-0.128 0.932c0.377 0.24 0.951 0.46 1.585 0.46 1.255 0 1.993-0.775 1.993-1.586 0-0.967-0.701-1.356-1.32-1.696-0.571-0.312-1.142-0.489-1.142-1.005 0-0.258 0.221-0.591 0.745-0.591 0.425 0 0.783 0.276 1.098 0.683l0.165-0.858c-0.305-0.157-0.746-0.323-1.308-0.323-1.198 0-1.808 0.747-1.808 1.549 0 0.821 0.582 1.291 1.18 1.623 0.6 0.331 1.208 0.526 1.208 1.024 0 0.37-0.368 0.673-0.884 0.673zM40.773 52.133v-7.871l1.44-0.11v7.981zM16.272 47.399c0.7-0.351 1.439-1.098 1.826-1.753h0.185v1.33h1.255v0.561h-1.255v3.222c0 0.488 0.286 0.905 0.875 0.905 0.278 0 0.582-0.13 0.757-0.406-0.138 0.434-0.562 0.941-1.458 0.941-1.060 0-1.613-0.803-1.613-1.837v-2.824h-0.573v-0.138zM20.926 44.705c0 0.323 0.259 0.563 0.573 0.563 0.316 0 0.573-0.241 0.573-0.563 0-0.312-0.258-0.562-0.573-0.562-0.314-0-0.573 0.25-0.573 0.562zM22.23 52.133v-5.186l-1.45 0.121v5.065zM34.292 51.174c0 0.517 0.074 0.821 0.434 0.821-0.205 0.139-0.544 0.222-0.83 0.222-0.602 0-1.062-0.306-1.062-1.079v-2.742c0-0.581-0.322-0.895-0.747-0.895-0.296 0-0.601 0.139-0.784 0.388 0.165-0.49 0.627-1.024 1.484-1.024 0.96 0 1.506 0.719 1.506 1.624v2.684h-0.001zM31.117 52.133h-1.458v-5.074l1.458-0.112zM25.933 51.774c-0.709 0-1.142-0.664-1.142-2.206 0-1.531 0.433-2.205 1.142-2.205 0.702 0 1.136 0.674 1.136 2.205s-0.434 2.206-1.136 2.206zM25.933 46.865c-1.347 0-2.657 1.060-2.657 2.702 0 1.652 1.31 2.705 2.657 2.705 1.338 0 2.648-1.052 2.648-2.705 0-1.642-1.31-2.702-2.648-2.702zM39.423 51.174c0 0.517 0.075 0.821 0.407 0.821-0.185 0.139-0.508 0.222-0.766 0.222-0.562 0-0.988-0.306-0.988-1.079v-1.792c-0.978 0.499-1.319 0.914-1.319 1.559 0 0.831 0.826 0.941 1.145 0.508-0.166 0.462-0.603 0.803-1.136 0.803-0.748 0-1.349-0.508-1.349-1.256 0-1.218 1.533-1.559 2.659-2.112v-0.517c0-0.525-0.287-0.804-0.894-0.804-0.36 0-0.83 0.111-1.146 0.24v-0.619c0.241-0.101 0.823-0.222 1.367-0.222 0.96 0 2.019 0.351 2.019 1.865v2.38zM15.4 51.174c0 0.517 0.074 0.821 0.406 0.821-0.183 0.139-0.508 0.222-0.766 0.222-0.563 0-0.988-0.306-0.988-1.079v-1.792c-0.976 0.499-1.319 0.914-1.319 1.559 0 0.831 0.827 0.941 1.145 0.508-0.165 0.462-0.604 0.803-1.136 0.803-0.748 0-1.348-0.508-1.348-1.256 0-1.218 1.531-1.559 2.657-2.112v-0.517c0-0.525-0.286-0.804-0.894-0.804-0.359 0-0.83 0.111-1.145 0.24v-0.619c0.24-0.101 0.823-0.222 1.366-0.222 0.959 0 2.022 0.351 2.022 1.865l-0 2.38zM4.245 46.744v5.389h-0.933v-7.949h0.36l5.786 5.508v-5.426h0.869v7.958h-0.323z"></path>
</svg>
